<?xml version="1.0" encoding="UTF-8"?><svg xmlns="http://www.w3.org/2000/svg" xmlns:xlink="http://www.w3.org/1999/xlink" fill-opacity="1" color-rendering="auto" color-interpolation="auto" text-rendering="auto" stroke="black" stroke-linecap="square" width="456" stroke-miterlimit="10" shape-rendering="auto" stroke-opacity="1" fill="black" stroke-dasharray="none" font-weight="normal" stroke-width="1" height="660" font-family="'Dialog'" font-style="normal" stroke-linejoin="miter" font-size="12px" stroke-dashoffset="0" image-rendering="auto">
  <!--Generated by ySVG-->
  <defs id="genericDefs"/>
  <g>
    <defs id="defs1">
      <clipPath clipPathUnits="userSpaceOnUse" id="clipPath1">
        <path d="M0 0 L456 0 L456 660 L0 660 L0 0 Z"/>
      </clipPath>
      <clipPath clipPathUnits="userSpaceOnUse" id="clipPath2">
        <path d="M-20 -20 L436 -20 L436 640 L-20 640 L-20 -20 Z"/>
      </clipPath>
      <clipPath clipPathUnits="userSpaceOnUse" id="clipPath3">
        <path d="M-20 -270 L436 -270 L436 390 L-20 390 L-20 -270 Z"/>
      </clipPath>
      <clipPath clipPathUnits="userSpaceOnUse" id="clipPath4">
        <path d="M0 0 L0 368 L414 368 L414 0 Z"/>
      </clipPath>
      <clipPath clipPathUnits="userSpaceOnUse" id="clipPath5">
        <path d="M0 0 L0 341 L414 341 L414 0 Z"/>
      </clipPath>
      <clipPath clipPathUnits="userSpaceOnUse" id="clipPath6">
        <path d="M0 1 L0 25 L414 25 L414 1 Z"/>
      </clipPath>
      <clipPath clipPathUnits="userSpaceOnUse" id="clipPath7">
        <path d="M0 0 L0 24 L414 24 L414 0 Z"/>
      </clipPath>
      <clipPath clipPathUnits="userSpaceOnUse" id="clipPath8">
        <path d="M0 0 L0 22 L22 22 L22 0 Z"/>
      </clipPath>
      <clipPath clipPathUnits="userSpaceOnUse" id="clipPath9">
        <path d="M0 0 L0 22 L156 22 L156 0 Z"/>
      </clipPath>
      <clipPath clipPathUnits="userSpaceOnUse" id="clipPath10">
        <path d="M0 25 L0 49 L414 49 L414 25 Z"/>
      </clipPath>
      <clipPath clipPathUnits="userSpaceOnUse" id="clipPath11">
        <path d="M0 0 L0 22 L140 22 L140 0 Z"/>
      </clipPath>
      <clipPath clipPathUnits="userSpaceOnUse" id="clipPath12">
        <path d="M0 49 L0 73 L414 73 L414 49 Z"/>
      </clipPath>
      <clipPath clipPathUnits="userSpaceOnUse" id="clipPath13">
        <path d="M0 0 L0 22 L110 22 L110 0 Z"/>
      </clipPath>
      <clipPath clipPathUnits="userSpaceOnUse" id="clipPath14">
        <path d="M0 0 L0 22 L134 22 L134 0 Z"/>
      </clipPath>
      <clipPath clipPathUnits="userSpaceOnUse" id="clipPath15">
        <path d="M0 73 L0 97 L414 97 L414 73 Z"/>
      </clipPath>
      <clipPath clipPathUnits="userSpaceOnUse" id="clipPath16">
        <path d="M0 0 L0 22 L144 22 L144 0 Z"/>
      </clipPath>
      <clipPath clipPathUnits="userSpaceOnUse" id="clipPath17">
        <path d="M0 97 L0 98 L414 98 L414 97 Z"/>
      </clipPath>
      <clipPath clipPathUnits="userSpaceOnUse" id="clipPath18">
        <path d="M0 0 L0 1 L414 1 L414 0 Z"/>
      </clipPath>
      <clipPath clipPathUnits="userSpaceOnUse" id="clipPath19">
        <path d="M0 98 L0 122 L414 122 L414 98 Z"/>
      </clipPath>
      <clipPath clipPathUnits="userSpaceOnUse" id="clipPath20">
        <path d="M0 0 L0 22 L6 22 L6 0 Z"/>
      </clipPath>
      <clipPath clipPathUnits="userSpaceOnUse" id="clipPath21">
        <path d="M0 0 L0 22 L404 22 L404 0 Z"/>
      </clipPath>
      <clipPath clipPathUnits="userSpaceOnUse" id="clipPath22">
        <path d="M0 122 L0 123 L414 123 L414 122 Z"/>
      </clipPath>
      <clipPath clipPathUnits="userSpaceOnUse" id="clipPath23">
        <path d="M0 123 L0 147 L414 147 L414 123 Z"/>
      </clipPath>
      <clipPath clipPathUnits="userSpaceOnUse" id="clipPath24">
        <path d="M0 0 L0 22 L132 22 L132 0 Z"/>
      </clipPath>
      <clipPath clipPathUnits="userSpaceOnUse" id="clipPath25">
        <path d="M0 0 L0 22 L205 22 L205 0 Z"/>
      </clipPath>
      <clipPath clipPathUnits="userSpaceOnUse" id="clipPath26">
        <path d="M0 147 L0 171 L414 171 L414 147 Z"/>
      </clipPath>
      <clipPath clipPathUnits="userSpaceOnUse" id="clipPath27">
        <path d="M0 0 L0 22 L75 22 L75 0 Z"/>
      </clipPath>
      <clipPath clipPathUnits="userSpaceOnUse" id="clipPath28">
        <path d="M0 0 L0 22 L274 22 L274 0 Z"/>
      </clipPath>
      <clipPath clipPathUnits="userSpaceOnUse" id="clipPath29">
        <path d="M0 171 L0 195 L414 195 L414 171 Z"/>
      </clipPath>
      <clipPath clipPathUnits="userSpaceOnUse" id="clipPath30">
        <path d="M0 0 L0 22 L55 22 L55 0 Z"/>
      </clipPath>
      <clipPath clipPathUnits="userSpaceOnUse" id="clipPath31">
        <path d="M0 0 L0 22 L228 22 L228 0 Z"/>
      </clipPath>
      <clipPath clipPathUnits="userSpaceOnUse" id="clipPath32">
        <path d="M0 195 L0 219 L414 219 L414 195 Z"/>
      </clipPath>
      <clipPath clipPathUnits="userSpaceOnUse" id="clipPath33">
        <path d="M0 0 L0 22 L32 22 L32 0 Z"/>
      </clipPath>
      <clipPath clipPathUnits="userSpaceOnUse" id="clipPath34">
        <path d="M0 0 L0 22 L109 22 L109 0 Z"/>
      </clipPath>
      <clipPath clipPathUnits="userSpaceOnUse" id="clipPath35">
        <path d="M0 219 L0 220 L414 220 L414 219 Z"/>
      </clipPath>
      <clipPath clipPathUnits="userSpaceOnUse" id="clipPath36">
        <path d="M0 220 L0 244 L414 244 L414 220 Z"/>
      </clipPath>
      <clipPath clipPathUnits="userSpaceOnUse" id="clipPath37">
        <path d="M0 0 L0 22 L91 22 L91 0 Z"/>
      </clipPath>
      <clipPath clipPathUnits="userSpaceOnUse" id="clipPath38">
        <path d="M0 244 L0 268 L414 268 L414 244 Z"/>
      </clipPath>
      <clipPath clipPathUnits="userSpaceOnUse" id="clipPath39">
        <path d="M0 0 L0 22 L42 22 L42 0 Z"/>
      </clipPath>
      <clipPath clipPathUnits="userSpaceOnUse" id="clipPath40">
        <path d="M0 0 L0 22 L82 22 L82 0 Z"/>
      </clipPath>
      <clipPath clipPathUnits="userSpaceOnUse" id="clipPath41">
        <path d="M0 268 L0 292 L414 292 L414 268 Z"/>
      </clipPath>
      <clipPath clipPathUnits="userSpaceOnUse" id="clipPath42">
        <path d="M0 0 L0 22 L40 22 L40 0 Z"/>
      </clipPath>
      <clipPath clipPathUnits="userSpaceOnUse" id="clipPath43">
        <path d="M0 292 L0 316 L414 316 L414 292 Z"/>
      </clipPath>
      <clipPath clipPathUnits="userSpaceOnUse" id="clipPath44">
        <path d="M0 0 L0 22 L50 22 L50 0 Z"/>
      </clipPath>
      <clipPath clipPathUnits="userSpaceOnUse" id="clipPath45">
        <path d="M0 316 L0 340 L414 340 L414 316 Z"/>
      </clipPath>
      <clipPath clipPathUnits="userSpaceOnUse" id="clipPath46">
        <path d="M0 0 L0 22 L46 22 L46 0 Z"/>
      </clipPath>
      <clipPath clipPathUnits="userSpaceOnUse" id="clipPath47">
        <path d="M0 0 L0 27 L414 27 L414 0 Z"/>
      </clipPath>
      <clipPath clipPathUnits="userSpaceOnUse" id="clipPath48">
        <path d="M0 0 L0 26 L414 26 L414 0 Z"/>
      </clipPath>
      <clipPath clipPathUnits="userSpaceOnUse" id="clipPath49">
        <path d="M-83.5 -20 L372.5 -20 L372.5 640 L-83.5 640 L-83.5 -20 Z"/>
      </clipPath>
      <clipPath clipPathUnits="userSpaceOnUse" id="clipPath50">
        <path d="M0 0 L0 198 L287 198 L287 0 Z"/>
      </clipPath>
      <clipPath clipPathUnits="userSpaceOnUse" id="clipPath51">
        <path d="M0 0 L0 171 L287 171 L287 0 Z"/>
      </clipPath>
      <clipPath clipPathUnits="userSpaceOnUse" id="clipPath52">
        <path d="M0 1 L0 25 L287 25 L287 1 Z"/>
      </clipPath>
      <clipPath clipPathUnits="userSpaceOnUse" id="clipPath53">
        <path d="M0 0 L0 24 L287 24 L287 0 Z"/>
      </clipPath>
      <clipPath clipPathUnits="userSpaceOnUse" id="clipPath54">
        <path d="M0 25 L0 49 L287 49 L287 25 Z"/>
      </clipPath>
      <clipPath clipPathUnits="userSpaceOnUse" id="clipPath55">
        <path d="M0 49 L0 50 L287 50 L287 49 Z"/>
      </clipPath>
      <clipPath clipPathUnits="userSpaceOnUse" id="clipPath56">
        <path d="M0 0 L0 1 L287 1 L287 0 Z"/>
      </clipPath>
      <clipPath clipPathUnits="userSpaceOnUse" id="clipPath57">
        <path d="M0 50 L0 74 L287 74 L287 50 Z"/>
      </clipPath>
      <clipPath clipPathUnits="userSpaceOnUse" id="clipPath58">
        <path d="M0 74 L0 98 L287 98 L287 74 Z"/>
      </clipPath>
      <clipPath clipPathUnits="userSpaceOnUse" id="clipPath59">
        <path d="M0 98 L0 122 L287 122 L287 98 Z"/>
      </clipPath>
      <clipPath clipPathUnits="userSpaceOnUse" id="clipPath60">
        <path d="M0 122 L0 146 L287 146 L287 122 Z"/>
      </clipPath>
      <clipPath clipPathUnits="userSpaceOnUse" id="clipPath61">
        <path d="M0 146 L0 170 L287 170 L287 146 Z"/>
      </clipPath>
      <clipPath clipPathUnits="userSpaceOnUse" id="clipPath62">
        <path d="M0 0 L0 27 L287 27 L287 0 Z"/>
      </clipPath>
      <clipPath clipPathUnits="userSpaceOnUse" id="clipPath63">
        <path d="M0 0 L0 26 L287 26 L287 0 Z"/>
      </clipPath>
    </defs>
    <g fill="white" transform="translate(20,20)" stroke="white">
      <rect x="-20" width="456" height="660" y="-20" clip-path="url(#clipPath2)" stroke="none"/>
    </g>
    <g fill="silver" stroke="silver">
      <path d="M12.3594 640.0156 L12.3594 643.0938 L13.8438 643.0938 Q14.6719 643.0938 15.125 642.7031 Q15.5781 642.2969 15.5781 641.5469 Q15.5781 640.8125 15.125 640.4219 Q14.6719 640.0156 13.8438 640.0156 L12.3594 640.0156 ZM11.1719 639 L13.8438 639 Q15.3281 639 16.0781 639.6406 Q16.8281 640.2812 16.8281 641.5469 Q16.8281 642.7969 16.0781 643.4531 Q15.3281 644.0938 13.8438 644.0938 L12.3594 644.0938 L12.3594 648 L11.1719 648 L11.1719 639 ZM20.9082 641.9531 Q20.0488 641.9531 19.5332 642.6406 Q19.0332 643.3125 19.0332 644.5 Q19.0332 645.6875 19.5332 646.375 Q20.0332 647.0469 20.9082 647.0469 Q21.7676 647.0469 22.2676 646.375 Q22.7832 645.6875 22.7832 644.5 Q22.7832 643.3281 22.2676 642.6406 Q21.7676 641.9531 20.9082 641.9531 ZM20.9082 641 Q22.3145 641 23.1113 641.9375 Q23.9238 642.8594 23.9238 644.5 Q23.9238 646.1406 23.1113 647.0781 Q22.3145 648 20.9082 648 Q19.502 648 18.6895 647.0781 Q17.8926 646.1406 17.8926 644.5 Q17.8926 642.8594 18.6895 641.9375 Q19.502 641 20.9082 641 ZM25.0781 641 L26.1562 641 L27.5156 646.4688 L28.8438 641 L30.125 641 L31.4688 646.4688 L32.8125 641 L33.8906 641 L32.1719 648 L30.9062 648 L29.4844 642.2656 L28.0781 648 L26.7969 648 L25.0781 641 ZM41.1426 644.3594 L41.1426 644.9219 L36.1738 644.9219 Q36.252 645.9688 36.8457 646.5156 Q37.4551 647.0469 38.5176 647.0469 Q39.1426 647.0469 39.7207 646.9062 Q40.3145 646.7656 40.8926 646.4844 L40.8926 647.4688 Q40.2988 647.7188 39.6895 647.8594 Q39.0801 648 38.4551 648 Q36.8926 648 35.9707 647.0781 Q35.0488 646.1406 35.0488 644.5625 Q35.0488 642.9219 35.9238 641.9688 Q36.7988 641 38.2676 641 Q39.5957 641 40.3613 641.9062 Q41.1426 642.8125 41.1426 644.3594 ZM40.0645 644.0781 Q40.0488 643.1094 39.5645 642.5312 Q39.0801 641.9531 38.2832 641.9531 Q37.377 641.9531 36.8301 642.5156 Q36.2988 643.0625 36.2207 644.0781 L40.0645 644.0781 ZM46.7129 642.0625 Q46.5254 641.9531 46.3066 641.9062 Q46.1035 641.8438 45.8379 641.8438 Q44.9316 641.8438 44.4316 642.4844 Q43.9473 643.1094 43.9473 644.2969 L43.9473 648 L42.8691 648 L42.8691 641 L43.9473 641 L43.9473 642.0781 Q44.291 641.5469 44.8379 641.2812 Q45.3848 641 46.166 641 Q46.2754 641 46.4004 640.9844 Q46.541 640.9531 46.6973 640.9062 L46.7129 642.0625 ZM53.459 644.3594 L53.459 644.9219 L48.4902 644.9219 Q48.5684 645.9688 49.1621 646.5156 Q49.7715 647.0469 50.834 647.0469 Q51.459 647.0469 52.0371 646.9062 Q52.6309 646.7656 53.209 646.4844 L53.209 647.4688 Q52.6152 647.7188 52.0059 647.8594 Q51.3965 648 50.7715 648 Q49.209 648 48.2871 647.0781 Q47.3652 646.1406 47.3652 644.5625 Q47.3652 642.9219 48.2402 641.9688 Q49.1152 641 50.584 641 Q51.9121 641 52.6777 641.9062 Q53.459 642.8125 53.459 644.3594 ZM52.3809 644.0781 Q52.3652 643.1094 51.8809 642.5312 Q51.3965 641.9531 50.5996 641.9531 Q49.6934 641.9531 49.1465 642.5156 Q48.6152 643.0625 48.5371 644.0781 L52.3809 644.0781 ZM59.5449 642.2031 L59.5449 638 L60.623 638 L60.623 648 L59.5449 648 L59.5449 646.9688 Q59.2012 647.4844 58.6855 647.75 Q58.1699 648 57.4355 648 Q56.248 648 55.498 647.0469 Q54.748 646.0781 54.748 644.5 Q54.748 642.9219 55.498 641.9688 Q56.248 641 57.4355 641 Q58.1699 641 58.6855 641.2969 Q59.2012 641.5938 59.5449 642.2031 ZM55.873 644.5938 Q55.873 645.8281 56.3574 646.5312 Q56.8418 647.2344 57.7012 647.2344 Q58.5605 647.2344 59.0449 646.5312 Q59.5449 645.8281 59.5449 644.5938 Q59.5449 643.3438 59.0449 642.6406 Q58.5605 641.9375 57.7012 641.9375 Q56.8418 641.9375 56.3574 642.6406 Q55.873 643.3438 55.873 644.5938 ZM71.3672 644.5 Q71.3672 643.2969 70.8672 642.625 Q70.3828 641.9375 69.5391 641.9375 Q68.6797 641.9375 68.1797 642.625 Q67.6953 643.2969 67.6953 644.5 Q67.6953 645.7031 68.1797 646.3906 Q68.6797 647.0625 69.5391 647.0625 Q70.3828 647.0625 70.8672 646.3906 Q71.3672 645.7031 71.3672 644.5 ZM67.6953 642.1875 Q68.0391 641.5938 68.5547 641.2969 Q69.0703 641 69.7891 641 Q70.9922 641 71.7422 641.9688 Q72.4922 642.9219 72.4922 644.5 Q72.4922 646.0781 71.7422 647.0469 Q70.9922 648 69.7891 648 Q69.0703 648 68.5547 647.7031 Q68.0391 647.4062 67.6953 646.8125 L67.6953 648 L66.6172 648 L66.6172 638 L67.6953 638 L67.6953 642.1875 ZM77 648.9375 Q76.5469 650.2188 76.1094 650.6094 Q75.6719 651 74.9531 651 L74.0938 651 L74.0938 650.0625 L74.7188 650.0625 Q75.1719 650.0625 75.4062 649.8281 Q75.6562 649.5938 75.9531 648.7188 L76.1562 648.1719 L73.5 641 L74.6406 641 L76.6875 646.7031 L78.75 641 L79.8906 641 L77 648.9375 ZM87.916 648.9375 Q87.4629 650.2188 87.0254 650.6094 Q86.5879 651 85.8691 651 L85.0098 651 L85.0098 650.0625 L85.6348 650.0625 Q86.0879 650.0625 86.3223 649.8281 Q86.5723 649.5938 86.8691 648.7188 L87.0723 648.1719 L84.416 641 L85.5566 641 L87.6035 646.7031 L89.666 641 L90.8066 641 L87.916 648.9375 ZM92.3301 639 L97.3613 639 L97.3613 640.0312 L93.5176 640.0312 L93.5176 643.0781 L96.9863 643.0781 L96.9863 644.1094 L93.5176 644.1094 L93.5176 648 L92.3301 648 L92.3301 639 ZM99.1855 641 L100.2637 641 L100.2637 648 L99.1855 648 L99.1855 641 ZM99.1855 638 L100.2637 638 L100.2637 639.4219 L99.1855 639.4219 L99.1855 638 ZM102.5195 638 L103.5977 638 L103.5977 648 L102.5195 648 L102.5195 638 ZM111.4785 644.3594 L111.4785 644.9219 L106.5098 644.9219 Q106.5879 645.9688 107.1816 646.5156 Q107.791 647.0469 108.8535 647.0469 Q109.4785 647.0469 110.0566 646.9062 Q110.6504 646.7656 111.2285 646.4844 L111.2285 647.4688 Q110.6348 647.7188 110.0254 647.8594 Q109.416 648 108.791 648 Q107.2285 648 106.3066 647.0781 Q105.3848 646.1406 105.3848 644.5625 Q105.3848 642.9219 106.2598 641.9688 Q107.1348 641 108.6035 641 Q109.9316 641 110.6973 641.9062 Q111.4785 642.8125 111.4785 644.3594 ZM110.4004 644.0781 Q110.3848 643.1094 109.9004 642.5312 Q109.416 641.9531 108.6191 641.9531 Q107.7129 641.9531 107.166 642.5156 Q106.6348 643.0625 106.5566 644.0781 L110.4004 644.0781 ZM117.4238 641.3594 L117.4238 642.4062 Q116.9707 642.1719 116.4707 642.0625 Q115.9863 641.9375 115.4551 641.9375 Q114.6582 641.9375 114.252 642.1875 Q113.8457 642.4375 113.8457 642.9375 Q113.8457 643.3125 114.127 643.5312 Q114.4238 643.75 115.2988 643.9375 L115.6582 644.0312 Q116.8145 644.2812 117.2988 644.7344 Q117.7832 645.1875 117.7832 646 Q117.7832 646.9219 117.0488 647.4688 Q116.3301 648 115.0645 648 Q114.5332 648 113.9551 647.9062 Q113.3926 647.7969 112.7676 647.5781 L112.7676 646.4375 Q113.3613 646.75 113.9395 646.9062 Q114.5176 647.0625 115.0957 647.0625 Q115.8457 647.0625 116.252 646.7969 Q116.6738 646.5312 116.6738 646.0625 Q116.6738 645.6094 116.377 645.375 Q116.0801 645.1406 115.0801 644.9219 L114.7051 644.8281 Q113.7051 644.6094 113.252 644.1719 Q112.8145 643.7344 112.8145 642.9531 Q112.8145 642.0156 113.4707 641.5156 Q114.127 641 115.3301 641 Q115.9238 641 116.4551 641.0938 Q116.9863 641.1875 117.4238 641.3594 Z" stroke="none" clip-path="url(#clipPath1)"/>
    </g>
    <g fill="silver" transform="matrix(1,0,0,1,20,20) translate(0,250)" stroke="silver">
      <path d="M0 0 L416 0 L416 370 L0 370 L0 0 ZM1 1 L415 1 L415 369 L1 369 L1 1 Z" fill-rule="evenodd" clip-path="url(#clipPath3)" stroke="none"/>
    </g>
    <g fill="rgb(252,250,209)" font-family="'JetBrains Mono'" transform="matrix(1,0,0,1,20,20) translate(1,278)" stroke="rgb(252,250,209)">
      <rect x="0" width="414" height="341" y="0" clip-path="url(#clipPath5)" stroke="none"/>
    </g>
    <g font-size="13px" transform="matrix(1,0,0,1,20,20) translate(391,280)" fill="rgb(8,8,8)" text-rendering="optimizeSpeed" font-family="'Noto Sans'" shape-rendering="optimizeSpeed" stroke="rgb(8,8,8)">
      <text x="3" xml:space="preserve" y="16" clip-path="url(#clipPath8)" stroke="none">int</text>
    </g>
    <g fill="rgb(8,8,8)" font-size="13px" font-family="'Noto Sans'" transform="matrix(1,0,0,1,20,20) translate(3,280)" stroke="rgb(8,8,8)">
      <image x="2" y="3" clip-path="url(#clipPath9)" width="16" xlink:href="data:image/png;base64,iVBORw0KGgoAAAANSUhEUgAAABAAAAAQCAYAAAAf8/9hAAAAyklEQVR4XmNgoDZ4&#10;tcqB59NGO7+v6+1qPq+3nQTCIDZIDCSHrh4FfF1ra/R5nd3Ez+vtZmLFQDmQGnR9&#10;YADWvMFuBoYmdAxUg2HI643WvNhsnpCjvzfATu1+pr/mRXSXgPTADQD5D10zCIc5&#10;qd+5Oc96Ibo4CIP0wA2ABBimIn9btQfoYjAM0gM34MsGTOf72ao+hGGQV9DlQXrw&#10;GgAzBF0MqwG4vIDPABQv4ApEfAagBCKuaMRpAHo0ggBFCQkGKErKMEBRZiIHAADl&#10;hpKq9xqhxwAAAABJRU5ErkJggg==" height="16" preserveAspectRatio="none"/>
      <image x="2" y="3" clip-path="url(#clipPath9)" width="16" xlink:href="data:image/png;base64,iVBORw0KGgoAAAANSUhEUgAAABAAAAAQCAYAAAAf8/9hAAAAXklEQVR4XmNgGAWj&#10;gJpg+vL1CrOWb9gPotHlCAKo5vtA/B9Ek2QIkuYfs5avb4bQJBgCcjbI5tnLNzZB&#10;+GBDQC7Zj64WK8Dhgntzlq6VR1eLE6CFAWmaYQAWC6RqBgBZxFsNDaw++wAAAABJ&#10;RU5ErkJggg==" height="16" preserveAspectRatio="none"/>
      <image x="2" y="3" clip-path="url(#clipPath9)" width="16" xlink:href="data:image/png;base64,iVBORw0KGgoAAAANSUhEUgAAABAAAAAQCAYAAAAf8/9hAAAAd0lEQVR4XmNgAIKZ&#10;mzdzzVq+oQ+I381etqEdJEY06Fu1ihOo8QQQ/4fg9XPR1eAFM1ds7Edo3vBj9rKN&#10;euhq8AKgprdwzcs3hM9YvtEEXQ1eANTYAXL2zCUbdEGagfxvs5evd0BXRzQAaZ69&#10;fGM9uvgoGAWDGwAAhc9EfmN6odQAAAAASUVORK5CYII=" height="16" preserveAspectRatio="none"/>
      <image x="18" y="3" clip-path="url(#clipPath9)" width="16" xlink:href="data:image/png;base64,iVBORw0KGgoAAAANSUhEUgAAABAAAAAQCAYAAAAf8/9hAAAARElEQVR4XmNgGAU4&#10;wadU5cBPqUprIFg5EF2eIPiYqrTkY7KMEBgD2ejyBMGnFKVN2NhEAaCzN2PD6Opw&#10;AnSNI9GAEQYAZeJUmRXLgYcAAAAASUVORK5CYII=" height="16" preserveAspectRatio="none"/>
      <text x="37" y="16" clip-path="url(#clipPath9)" text-rendering="optimizeSpeed" shape-rendering="optimizeSpeed" stroke="none" xml:space="preserve">INITIAL_POOL_SIZE</text>
    </g>
    <g font-size="13px" transform="matrix(1,0,0,1,20,20) translate(391,304)" fill="rgb(8,8,8)" text-rendering="optimizeSpeed" font-family="'Noto Sans'" shape-rendering="optimizeSpeed" stroke="rgb(8,8,8)">
      <text x="3" xml:space="preserve" y="16" clip-path="url(#clipPath8)" stroke="none">int</text>
    </g>
    <g fill="rgb(8,8,8)" font-size="13px" font-family="'Noto Sans'" transform="matrix(1,0,0,1,20,20) translate(3,304)" stroke="rgb(8,8,8)">
      <image x="2" y="3" clip-path="url(#clipPath11)" width="16" xlink:href="data:image/png;base64,iVBORw0KGgoAAAANSUhEUgAAABAAAAAQCAYAAAAf8/9hAAAAyklEQVR4XmNgoDZ4&#10;tcqB59NGO7+v6+1qPq+3nQTCIDZIDCSHrh4FfF1ra/R5nd3Ez+vtZmLFQDmQGnR9&#10;YADWvMFuBoYmdAxUg2HI643WvNhsnpCjvzfATu1+pr/mRXSXgPTADQD5D10zCIc5&#10;qd+5Oc96Ibo4CIP0wA2ABBimIn9btQfoYjAM0gM34MsGTOf72ao+hGGQV9DlQXrw&#10;GgAzBF0MqwG4vIDPABQv4ApEfAagBCKuaMRpAHo0ggBFCQkGKErKMEBRZiIHAADl&#10;hpKq9xqhxwAAAABJRU5ErkJggg==" height="16" preserveAspectRatio="none"/>
      <image x="2" y="3" clip-path="url(#clipPath11)" width="16" xlink:href="data:image/png;base64,iVBORw0KGgoAAAANSUhEUgAAABAAAAAQCAYAAAAf8/9hAAAAXklEQVR4XmNgGAWj&#10;gJpg+vL1CrOWb9gPotHlCAKo5vtA/B9Ek2QIkuYfs5avb4bQJBgCcjbI5tnLNzZB&#10;+GBDQC7Zj64WK8Dhgntzlq6VR1eLE6CFAWmaYQAWC6RqBgBZxFsNDaw++wAAAABJ&#10;RU5ErkJggg==" height="16" preserveAspectRatio="none"/>
      <image x="2" y="3" clip-path="url(#clipPath11)" width="16" xlink:href="data:image/png;base64,iVBORw0KGgoAAAANSUhEUgAAABAAAAAQCAYAAAAf8/9hAAAAd0lEQVR4XmNgAIKZ&#10;mzdzzVq+oQ+I381etqEdJEY06Fu1ihOo8QQQ/4fg9XPR1eAFM1ds7Edo3vBj9rKN&#10;euhq8AKgprdwzcs3hM9YvtEEXQ1eANTYAXL2zCUbdEGagfxvs5evd0BXRzQAaZ69&#10;fGM9uvgoGAWDGwAAhc9EfmN6odQAAAAASUVORK5CYII=" height="16" preserveAspectRatio="none"/>
      <image x="18" y="3" clip-path="url(#clipPath11)" width="16" xlink:href="data:image/png;base64,iVBORw0KGgoAAAANSUhEUgAAABAAAAAQCAYAAAAf8/9hAAAARElEQVR4XmNgGAU4&#10;wadU5cBPqUprIFg5EF2eIPiYqrTkY7KMEBgD2ejyBMGnFKVN2NhEAaCzN2PD6Opw&#10;AnSNI9GAEQYAZeJUmRXLgYcAAAAASUVORK5CYII=" height="16" preserveAspectRatio="none"/>
      <text x="37" y="16" clip-path="url(#clipPath11)" text-rendering="optimizeSpeed" shape-rendering="optimizeSpeed" stroke="none" xml:space="preserve">MAX_POOL_SIZE</text>
    </g>
    <g font-size="13px" transform="matrix(1,0,0,1,20,20) translate(303,328)" fill="rgb(8,8,8)" text-rendering="optimizeSpeed" font-family="'Noto Sans'" shape-rendering="optimizeSpeed" stroke="rgb(8,8,8)">
      <text x="3" xml:space="preserve" y="16" clip-path="url(#clipPath13)" stroke="none">List&lt;Connection&gt;</text>
    </g>
    <g fill="rgb(8,8,8)" font-size="13px" font-family="'Noto Sans'" transform="matrix(1,0,0,1,20,20) translate(3,328)" stroke="rgb(8,8,8)">
      <image x="2" y="3" clip-path="url(#clipPath14)" width="16" xlink:href="data:image/png;base64,iVBORw0KGgoAAAANSUhEUgAAABAAAAAQCAYAAAAf8/9hAAAAyklEQVR4XmNgoDZ4&#10;tcqB59NGO7+v6+1qPq+3nQTCIDZIDCSHrh4FfF1ra/R5nd3Ez+vtZmLFQDmQGnR9&#10;YADWvMFuBoYmdAxUg2HI643WvNhsnpCjvzfATu1+pr/mRXSXgPTADQD5D10zCIc5&#10;qd+5Oc96Ibo4CIP0wA2ABBimIn9btQfoYjAM0gM34MsGTOf72ao+hGGQV9DlQXrw&#10;GgAzBF0MqwG4vIDPABQv4ApEfAagBCKuaMRpAHo0ggBFCQkGKErKMEBRZiIHAADl&#10;hpKq9xqhxwAAAABJRU5ErkJggg==" height="16" preserveAspectRatio="none"/>
      <image x="2" y="3" clip-path="url(#clipPath14)" width="16" xlink:href="data:image/png;base64,iVBORw0KGgoAAAANSUhEUgAAABAAAAAQCAYAAAAf8/9hAAAAd0lEQVR4XmNgAIKZ&#10;mzdzzVq+oQ+I381etqEdJEY06Fu1ihOo8QQQ/4fg9XPR1eAFM1ds7Edo3vBj9rKN&#10;euhq8AKgprdwzcs3hM9YvtEEXQ1eANTYAXL2zCUbdEGagfxvs5evd0BXRzQAaZ69&#10;fGM9uvgoGAWDGwAAhc9EfmN6odQAAAAASUVORK5CYII=" height="16" preserveAspectRatio="none"/>
      <image x="18" y="3" clip-path="url(#clipPath14)" width="16" xlink:href="data:image/png;base64,iVBORw0KGgoAAAANSUhEUgAAABAAAAAQCAYAAAAf8/9hAAAARElEQVR4XmNgGAU4&#10;wadU5cBPqUprIFg5EF2eIPiYqrTkY7KMEBgD2ejyBMGnFKVN2NhEAaCzN2PD6Opw&#10;AnSNI9GAEQYAZeJUmRXLgYcAAAAASUVORK5CYII=" height="16" preserveAspectRatio="none"/>
      <text x="37" y="16" clip-path="url(#clipPath14)" text-rendering="optimizeSpeed" shape-rendering="optimizeSpeed" stroke="none" xml:space="preserve">connectionPool</text>
    </g>
    <g font-size="13px" transform="matrix(1,0,0,1,20,20) translate(303,352)" fill="rgb(8,8,8)" text-rendering="optimizeSpeed" font-family="'Noto Sans'" shape-rendering="optimizeSpeed" stroke="rgb(8,8,8)">
      <text x="3" xml:space="preserve" y="16" clip-path="url(#clipPath13)" stroke="none">List&lt;Connection&gt;</text>
    </g>
    <g fill="rgb(8,8,8)" font-size="13px" font-family="'Noto Sans'" transform="matrix(1,0,0,1,20,20) translate(3,352)" stroke="rgb(8,8,8)">
      <image x="2" y="3" clip-path="url(#clipPath16)" width="16" xlink:href="data:image/png;base64,iVBORw0KGgoAAAANSUhEUgAAABAAAAAQCAYAAAAf8/9hAAAAyklEQVR4XmNgoDZ4&#10;tcqB59NGO7+v6+1qPq+3nQTCIDZIDCSHrh4FfF1ra/R5nd3Ez+vtZmLFQDmQGnR9&#10;YADWvMFuBoYmdAxUg2HI643WvNhsnpCjvzfATu1+pr/mRXSXgPTADQD5D10zCIc5&#10;qd+5Oc96Ibo4CIP0wA2ABBimIn9btQfoYjAM0gM34MsGTOf72ao+hGGQV9DlQXrw&#10;GgAzBF0MqwG4vIDPABQv4ApEfAagBCKuaMRpAHo0ggBFCQkGKErKMEBRZiIHAADl&#10;hpKq9xqhxwAAAABJRU5ErkJggg==" height="16" preserveAspectRatio="none"/>
      <image x="2" y="3" clip-path="url(#clipPath16)" width="16" xlink:href="data:image/png;base64,iVBORw0KGgoAAAANSUhEUgAAABAAAAAQCAYAAAAf8/9hAAAAd0lEQVR4XmNgAIKZ&#10;mzdzzVq+oQ+I381etqEdJEY06Fu1ihOo8QQQ/4fg9XPR1eAFM1ds7Edo3vBj9rKN&#10;euhq8AKgprdwzcs3hM9YvtEEXQ1eANTYAXL2zCUbdEGagfxvs5evd0BXRzQAaZ69&#10;fGM9uvgoGAWDGwAAhc9EfmN6odQAAAAASUVORK5CYII=" height="16" preserveAspectRatio="none"/>
      <image x="18" y="3" clip-path="url(#clipPath16)" width="16" xlink:href="data:image/png;base64,iVBORw0KGgoAAAANSUhEUgAAABAAAAAQCAYAAAAf8/9hAAAARElEQVR4XmNgGAU4&#10;wadU5cBPqUprIFg5EF2eIPiYqrTkY7KMEBgD2ejyBMGnFKVN2NhEAaCzN2PD6Opw&#10;AnSNI9GAEQYAZeJUmRXLgYcAAAAASUVORK5CYII=" height="16" preserveAspectRatio="none"/>
      <text x="37" y="16" clip-path="url(#clipPath16)" text-rendering="optimizeSpeed" shape-rendering="optimizeSpeed" stroke="none" xml:space="preserve">usedConnections</text>
    </g>
    <g fill="gray" font-size="13px" font-family="'Noto Sans'" transform="matrix(1,0,0,1,20,20) translate(1,278)" stroke="gray">
      <rect x="0" width="414" height="1" y="97" clip-path="url(#clipPath17)" stroke="none"/>
    </g>
    <g fill="gray" font-size="13px" font-family="'Noto Sans'" transform="matrix(1,0,0,1,20,20) translate(1,375)" stroke="gray">
      <rect x="0" width="414" height="1" y="0" clip-path="url(#clipPath18)" stroke="none"/>
    </g>
    <g fill="rgb(8,8,8)" font-size="13px" font-family="'Noto Sans'" transform="matrix(1,0,0,1,20,20) translate(3,377)" stroke="rgb(8,8,8)">
      <image x="2" y="3" clip-path="url(#clipPath21)" width="16" xlink:href="data:image/png;base64,iVBORw0KGgoAAAANSUhEUgAAABAAAAAQCAYAAAAf8/9hAAAA30lEQVR4XmNgoDb4&#10;P3Uqz4/OuX4/u+bV/OiaPwmEwWygGEgOXT0K+No1z+hH57yJP7rmzcSKgXIgNej6&#10;wACsuXv+DAxN6BioBsOQ151zefHajI6BakF64AaA/IehiBAG6oEbAAkwhKS/qdXD&#10;SGvHm8Hm1vca/cOORVjZ3wbxN6QVb4SpAelBuKAb1fkgA44VNqw8V9a2DMS+VNmx&#10;9FRx0/IooCFwdUA9OA0IMre+j2wYjB1oZvUAqwHoXsBlQACSAaheQAtEZIW4DEAJ&#10;RIqjEQQoSkgwQFFShgGKMhM5AACUwLPgm46GUAAAAABJRU5ErkJggg==" height="16" preserveAspectRatio="none"/>
      <image x="18" y="3" clip-path="url(#clipPath21)" width="16" xlink:href="data:image/png;base64,iVBORw0KGgoAAAANSUhEUgAAABAAAAAQCAYAAAAf8/9hAAAARElEQVR4XmNgGAU4&#10;wadU5cBPqUprIFg5EF2eIPiYqrTkY7KMEBgD2ejyBMGnFKVN2NhEAaCzN2PD6Opw&#10;AnSNI9GAEQYAZeJUmRXLgYcAAAAASUVORK5CYII=" height="16" preserveAspectRatio="none"/>
      <text x="37" y="16" clip-path="url(#clipPath21)" text-rendering="optimizeSpeed" shape-rendering="optimizeSpeed" stroke="none" xml:space="preserve">BasicConnectionPool(String, String, String, List&lt;Connection&gt;)</text>
    </g>
    <g fill="gray" font-size="13px" font-family="'Noto Sans'" transform="matrix(1,0,0,1,20,20) translate(1,278)" stroke="gray">
      <rect x="0" width="414" height="1" y="122" clip-path="url(#clipPath22)" stroke="none"/>
    </g>
    <g fill="gray" font-size="13px" font-family="'Noto Sans'" transform="matrix(1,0,0,1,20,20) translate(1,400)" stroke="gray">
      <rect x="0" width="414" height="1" y="0" clip-path="url(#clipPath18)" stroke="none"/>
    </g>
    <g font-size="13px" transform="matrix(1,0,0,1,20,20) translate(281,402)" fill="rgb(8,8,8)" text-rendering="optimizeSpeed" font-family="'Noto Sans'" shape-rendering="optimizeSpeed" stroke="rgb(8,8,8)">
      <text x="3" xml:space="preserve" y="16" clip-path="url(#clipPath24)" stroke="none">BasicConnectionPool</text>
    </g>
    <g fill="rgb(8,8,8)" font-size="13px" font-family="'Noto Sans'" transform="matrix(1,0,0,1,20,20) translate(3,402)" stroke="rgb(8,8,8)">
      <image x="2" y="3" clip-path="url(#clipPath25)" width="16" xlink:href="data:image/png;base64,iVBORw0KGgoAAAANSUhEUgAAABAAAAAQCAYAAAAf8/9hAAAA30lEQVR4XmNgoDb4&#10;P3Uqz4/OuX4/u+bV/OiaPwmEwWygGEgOXT0K+No1z+hH57yJP7rmzcSKgXIgNej6&#10;wACsuXv+DAxN6BioBsOQ151zefHajI6BakF64AaA/IehiBAG6oEbAAkwhKS/qdXD&#10;SGvHm8Hm1vca/cOORVjZ3wbxN6QVb4SpAelBuKAb1fkgA44VNqw8V9a2DMS+VNmx&#10;9FRx0/IooCFwdUA9OA0IMre+j2wYjB1oZvUAqwHoXsBlQACSAaheQAtEZIW4DEAJ&#10;RIqjEQQoSkgwQFFShgGKMhM5AACUwLPgm46GUAAAAABJRU5ErkJggg==" height="16" preserveAspectRatio="none"/>
      <image x="2" y="3" clip-path="url(#clipPath25)" width="16" xlink:href="data:image/png;base64,iVBORw0KGgoAAAANSUhEUgAAABAAAAAQCAYAAAAf8/9hAAAAXklEQVR4XmNgGAWj&#10;gJpg+vL1CrOWb9gPotHlCAKo5vtA/B9Ek2QIkuYfs5avb4bQJBgCcjbI5tnLNzZB&#10;+GBDQC7Zj64WK8Dhgntzlq6VR1eLE6CFAWmaYQAWC6RqBgBZxFsNDaw++wAAAABJ&#10;RU5ErkJggg==" height="16" preserveAspectRatio="none"/>
      <image x="18" y="3" clip-path="url(#clipPath25)" width="16" xlink:href="data:image/png;base64,iVBORw0KGgoAAAANSUhEUgAAABAAAAAQCAYAAAAf8/9hAAAAVElEQVR4XmNgGAUo&#10;IHmrs0fyVqelSVudlqVscQlClycIQBozNjtJp2x0FgcatBZdniBI3Oq8CcZO2uq8&#10;GVmOKJC8DWIASDM2jK4eJ0DXOBINGGEAAK2BUelpYy0MAAAAAElFTkSuQmCC" height="16" preserveAspectRatio="none"/>
      <text x="37" y="16" clip-path="url(#clipPath25)" text-rendering="optimizeSpeed" shape-rendering="optimizeSpeed" stroke="none" xml:space="preserve">create(String, String, String)</text>
    </g>
    <g font-size="13px" transform="matrix(1,0,0,1,20,20) translate(338,426)" fill="rgb(8,8,8)" text-rendering="optimizeSpeed" font-family="'Noto Sans'" shape-rendering="optimizeSpeed" stroke="rgb(8,8,8)">
      <text x="3" xml:space="preserve" y="16" clip-path="url(#clipPath27)" stroke="none">Connection</text>
    </g>
    <g fill="rgb(8,8,8)" font-size="13px" font-family="'Noto Sans'" transform="matrix(1,0,0,1,20,20) translate(3,426)" stroke="rgb(8,8,8)">
      <image x="2" y="3" clip-path="url(#clipPath28)" width="16" xlink:href="data:image/png;base64,iVBORw0KGgoAAAANSUhEUgAAABAAAAAQCAYAAAAf8/9hAAAA30lEQVR4XmNgoDb4&#10;P3Uqz4/OuX4/u+bV/OiaPwmEwWygGEgOXT0K+No1z+hH57yJP7rmzcSKgXIgNej6&#10;wACsuXv+DAxN6BioBsOQ151zefHajI6BakF64AaA/IehiBAG6oEbAAkwhKS/qdXD&#10;SGvHm8Hm1vca/cOORVjZ3wbxN6QVb4SpAelBuKAb1fkgA44VNqw8V9a2DMS+VNmx&#10;9FRx0/IooCFwdUA9OA0IMre+j2wYjB1oZvUAqwHoXsBlQACSAaheQAtEZIW4DEAJ&#10;RIqjEQQoSkgwQFFShgGKMhM5AACUwLPgm46GUAAAAABJRU5ErkJggg==" height="16" preserveAspectRatio="none"/>
      <image x="2" y="3" clip-path="url(#clipPath28)" width="16" xlink:href="data:image/png;base64,iVBORw0KGgoAAAANSUhEUgAAABAAAAAQCAYAAAAf8/9hAAAAXklEQVR4XmNgGAWj&#10;gJpg+vL1CrOWb9gPotHlCAKo5vtA/B9Ek2QIkuYfs5avb4bQJBgCcjbI5tnLNzZB&#10;+GBDQC7Zj64WK8Dhgntzlq6VR1eLE6CFAWmaYQAWC6RqBgBZxFsNDaw++wAAAABJ&#10;RU5ErkJggg==" height="16" preserveAspectRatio="none"/>
      <image x="18" y="3" clip-path="url(#clipPath28)" width="16" xlink:href="data:image/png;base64,iVBORw0KGgoAAAANSUhEUgAAABAAAAAQCAYAAAAf8/9hAAAARElEQVR4XmNgGAU4&#10;wadU5cBPqUprIFg5EF2eIPiYqrTkY7KMEBgD2ejyBMGnFKVN2NhEAaCzN2PD6Opw&#10;AnSNI9GAEQYAZeJUmRXLgYcAAAAASUVORK5CYII=" height="16" preserveAspectRatio="none"/>
      <text x="37" y="16" clip-path="url(#clipPath28)" text-rendering="optimizeSpeed" shape-rendering="optimizeSpeed" stroke="none" xml:space="preserve">createConnection(String, String, String)</text>
    </g>
    <g font-size="13px" transform="matrix(1,0,0,1,20,20) translate(358,450)" fill="rgb(8,8,8)" text-rendering="optimizeSpeed" font-family="'Noto Sans'" shape-rendering="optimizeSpeed" stroke="rgb(8,8,8)">
      <text x="3" xml:space="preserve" y="16" clip-path="url(#clipPath30)" stroke="none">boolean</text>
    </g>
    <g fill="rgb(8,8,8)" font-size="13px" font-family="'Noto Sans'" transform="matrix(1,0,0,1,20,20) translate(3,450)" stroke="rgb(8,8,8)">
      <image x="2" y="3" clip-path="url(#clipPath31)" width="16" xlink:href="data:image/png;base64,iVBORw0KGgoAAAANSUhEUgAAABAAAAAQCAYAAAAf8/9hAAAA30lEQVR4XmNgoDb4&#10;P3Uqz4/OuX4/u+bV/OiaPwmEwWygGEgOXT0K+No1z+hH57yJP7rmzcSKgXIgNej6&#10;wACsuXv+DAxN6BioBsOQ151zefHajI6BakF64AaA/IehiBAG6oEbAAkwhKS/qdXD&#10;SGvHm8Hm1vca/cOORVjZ3wbxN6QVb4SpAelBuKAb1fkgA44VNqw8V9a2DMS+VNmx&#10;9FRx0/IooCFwdUA9OA0IMre+j2wYjB1oZvUAqwHoXsBlQACSAaheQAtEZIW4DEAJ&#10;RIqjEQQoSkgwQFFShgGKMhM5AACUwLPgm46GUAAAAABJRU5ErkJggg==" height="16" preserveAspectRatio="none"/>
      <image x="18" y="3" clip-path="url(#clipPath31)" width="16" xlink:href="data:image/png;base64,iVBORw0KGgoAAAANSUhEUgAAABAAAAAQCAYAAAAf8/9hAAAAVElEQVR4XmNgGAUo&#10;IHmrs0fyVqelSVudlqVscQlClycIQBozNjtJp2x0FgcatBZdniBI3Oq8CcZO2uq8&#10;GVmOKJC8DWIASDM2jK4eJ0DXOBINGGEAAK2BUelpYy0MAAAAAElFTkSuQmCC" height="16" preserveAspectRatio="none"/>
      <text x="37" y="16" clip-path="url(#clipPath31)" text-rendering="optimizeSpeed" shape-rendering="optimizeSpeed" stroke="none" xml:space="preserve">releaseConnection(Connection)</text>
    </g>
    <g font-size="13px" transform="matrix(1,0,0,1,20,20) translate(381,474)" fill="rgb(8,8,8)" text-rendering="optimizeSpeed" font-family="'Noto Sans'" shape-rendering="optimizeSpeed" stroke="rgb(8,8,8)">
      <text x="3" xml:space="preserve" y="16" clip-path="url(#clipPath33)" stroke="none">void</text>
    </g>
    <g fill="rgb(8,8,8)" font-size="13px" font-family="'Noto Sans'" transform="matrix(1,0,0,1,20,20) translate(3,474)" stroke="rgb(8,8,8)">
      <image x="2" y="3" clip-path="url(#clipPath34)" width="16" xlink:href="data:image/png;base64,iVBORw0KGgoAAAANSUhEUgAAABAAAAAQCAYAAAAf8/9hAAAA30lEQVR4XmNgoDb4&#10;P3Uqz4/OuX4/u+bV/OiaPwmEwWygGEgOXT0K+No1z+hH57yJP7rmzcSKgXIgNej6&#10;wACsuXv+DAxN6BioBsOQ151zefHajI6BakF64AaA/IehiBAG6oEbAAkwhKS/qdXD&#10;SGvHm8Hm1vca/cOORVjZ3wbxN6QVb4SpAelBuKAb1fkgA44VNqw8V9a2DMS+VNmx&#10;9FRx0/IooCFwdUA9OA0IMre+j2wYjB1oZvUAqwHoXsBlQACSAaheQAtEZIW4DEAJ&#10;RIqjEQQoSkgwQFFShgGKMhM5AACUwLPgm46GUAAAAABJRU5ErkJggg==" height="16" preserveAspectRatio="none"/>
      <image x="18" y="3" clip-path="url(#clipPath34)" width="16" xlink:href="data:image/png;base64,iVBORw0KGgoAAAANSUhEUgAAABAAAAAQCAYAAAAf8/9hAAAAVElEQVR4XmNgGAUo&#10;IHmrs0fyVqelSVudlqVscQlClycIQBozNjtJp2x0FgcatBZdniBI3Oq8CcZO2uq8&#10;GVmOKJC8DWIASDM2jK4eJ0DXOBINGGEAAK2BUelpYy0MAAAAAElFTkSuQmCC" height="16" preserveAspectRatio="none"/>
      <text x="37" y="16" clip-path="url(#clipPath34)" text-rendering="optimizeSpeed" shape-rendering="optimizeSpeed" stroke="none" xml:space="preserve">shutdown()</text>
    </g>
    <g fill="gray" font-size="13px" font-family="'Noto Sans'" transform="matrix(1,0,0,1,20,20) translate(1,278)" stroke="gray">
      <rect x="0" width="414" height="1" y="219" clip-path="url(#clipPath35)" stroke="none"/>
    </g>
    <g fill="gray" font-size="13px" font-family="'Noto Sans'" transform="matrix(1,0,0,1,20,20) translate(1,497)" stroke="gray">
      <rect x="0" width="414" height="1" y="0" clip-path="url(#clipPath18)" stroke="none"/>
    </g>
    <g font-size="13px" transform="matrix(1,0,0,1,20,20) translate(338,499)" fill="rgb(8,8,8)" text-rendering="optimizeSpeed" font-family="'Noto Sans'" shape-rendering="optimizeSpeed" stroke="rgb(8,8,8)">
      <text x="3" xml:space="preserve" y="16" clip-path="url(#clipPath27)" stroke="none">Connection</text>
    </g>
    <g fill="rgb(8,8,8)" font-size="13px" font-family="'Noto Sans'" transform="matrix(1,0,0,1,20,20) translate(3,499)" stroke="rgb(8,8,8)">
      <image x="2" y="3" clip-path="url(#clipPath37)" width="16" xlink:href="data:image/png;base64,iVBORw0KGgoAAAANSUhEUgAAABAAAAAQCAYAAAAf8/9hAAABTElEQVR4XmNgoDbY&#10;P/U/z65ZP/x2zvpZs3P2j0kgvGv2z1qQGEgOXT0K2DHzqxFQw0QgnokDTwSpQdcH&#10;BiCJXXN+zMCiCQWD1GAYsnHua14CNqPjiSA9cAPAfkZT5GTp8yAzovlwuHf2+SC3&#10;5MvT6o+vQJYH6YEbAA0wdAMeTqzavxrE7i7dti7ELfUSihqgHoQBWJwPMmDbjM+z&#10;QOztMz/Pdrb0u4+mZiKSAb9A0YVhwNqJz+eB2Kv6H833to+4idsAHF7IjGw5PLv5&#10;zLKU0Pqj2dHtB1HUIHsBRyA+7CvbsTYzsu1QTfrc7SBvIMujBOK2SW/5gN7oRzdg&#10;+8zvKIYiYdRoBIG9C34o75j1owPZACwaMRNS0hbnViD+DKJ3zPmhgu4SdJsxUmHS&#10;VudPQPwfRIP4YO/M+eELCqRds39M2UkoMyG7AF2OGAAACgTh+GXbU1YAAAAASUVO&#10;RK5CYII=" height="16" preserveAspectRatio="none"/>
      <text x="21" y="16" clip-path="url(#clipPath37)" text-rendering="optimizeSpeed" shape-rendering="optimizeSpeed" stroke="none" xml:space="preserve">connection</text>
    </g>
    <g font-size="13px" transform="matrix(1,0,0,1,20,20) translate(371,523)" fill="rgb(8,8,8)" text-rendering="optimizeSpeed" font-family="'Noto Sans'" shape-rendering="optimizeSpeed" stroke="rgb(8,8,8)">
      <text x="3" xml:space="preserve" y="16" clip-path="url(#clipPath39)" stroke="none">String</text>
    </g>
    <g fill="rgb(8,8,8)" font-size="13px" font-family="'Noto Sans'" transform="matrix(1,0,0,1,20,20) translate(3,523)" stroke="rgb(8,8,8)">
      <image x="2" y="3" clip-path="url(#clipPath40)" width="16" xlink:href="data:image/png;base64,iVBORw0KGgoAAAANSUhEUgAAABAAAAAQCAYAAAAf8/9hAAABTElEQVR4XmNgoDbY&#10;P/U/z65ZP/x2zvpZs3P2j0kgvGv2z1qQGEgOXT0K2DHzqxFQw0QgnokDTwSpQdcH&#10;BiCJXXN+zMCiCQWD1GAYsnHua14CNqPjiSA9cAPAfkZT5GTp8yAzovlwuHf2+SC3&#10;5MvT6o+vQJYH6YEbAA0wdAMeTqzavxrE7i7dti7ELfUSihqgHoQBWJwPMmDbjM+z&#10;QOztMz/Pdrb0u4+mZiKSAb9A0YVhwNqJz+eB2Kv6H833to+4idsAHF7IjGw5PLv5&#10;zLKU0Pqj2dHtB1HUIHsBRyA+7CvbsTYzsu1QTfrc7SBvIMujBOK2SW/5gN7oRzdg&#10;+8zvKIYiYdRoBIG9C34o75j1owPZACwaMRNS0hbnViD+DKJ3zPmhgu4SdJsxUmHS&#10;VudPQPwfRIP4YO/M+eELCqRds39M2UkoMyG7AF2OGAAACgTh+GXbU1YAAAAASUVO&#10;RK5CYII=" height="16" preserveAspectRatio="none"/>
      <text x="21" y="16" clip-path="url(#clipPath40)" text-rendering="optimizeSpeed" shape-rendering="optimizeSpeed" stroke="none" xml:space="preserve">password</text>
    </g>
    <g font-size="13px" transform="matrix(1,0,0,1,20,20) translate(371,547)" fill="rgb(8,8,8)" text-rendering="optimizeSpeed" font-family="'Noto Sans'" shape-rendering="optimizeSpeed" stroke="rgb(8,8,8)">
      <text x="3" xml:space="preserve" y="16" clip-path="url(#clipPath39)" stroke="none">String</text>
    </g>
    <g fill="rgb(8,8,8)" font-size="13px" font-family="'Noto Sans'" transform="matrix(1,0,0,1,20,20) translate(3,547)" stroke="rgb(8,8,8)">
      <image x="2" y="3" clip-path="url(#clipPath42)" width="16" xlink:href="data:image/png;base64,iVBORw0KGgoAAAANSUhEUgAAABAAAAAQCAYAAAAf8/9hAAABTElEQVR4XmNgoDbY&#10;P/U/z65ZP/x2zvpZs3P2j0kgvGv2z1qQGEgOXT0K2DHzqxFQw0QgnokDTwSpQdcH&#10;BiCJXXN+zMCiCQWD1GAYsnHua14CNqPjiSA9cAPAfkZT5GTp8yAzovlwuHf2+SC3&#10;5MvT6o+vQJYH6YEbAA0wdAMeTqzavxrE7i7dti7ELfUSihqgHoQBWJwPMmDbjM+z&#10;QOztMz/Pdrb0u4+mZiKSAb9A0YVhwNqJz+eB2Kv6H833to+4idsAHF7IjGw5PLv5&#10;zLKU0Pqj2dHtB1HUIHsBRyA+7CvbsTYzsu1QTfrc7SBvIMujBOK2SW/5gN7oRzdg&#10;+8zvKIYiYdRoBIG9C34o75j1owPZACwaMRNS0hbnViD+DKJ3zPmhgu4SdJsxUmHS&#10;VudPQPwfRIP4YO/M+eELCqRds39M2UkoMyG7AF2OGAAACgTh+GXbU1YAAAAASUVO&#10;RK5CYII=" height="16" preserveAspectRatio="none"/>
      <text x="21" y="16" clip-path="url(#clipPath42)" text-rendering="optimizeSpeed" shape-rendering="optimizeSpeed" stroke="none" xml:space="preserve">url</text>
    </g>
    <g font-size="13px" transform="matrix(1,0,0,1,20,20) translate(371,571)" fill="rgb(8,8,8)" text-rendering="optimizeSpeed" font-family="'Noto Sans'" shape-rendering="optimizeSpeed" stroke="rgb(8,8,8)">
      <text x="3" xml:space="preserve" y="16" clip-path="url(#clipPath39)" stroke="none">String</text>
    </g>
    <g fill="rgb(8,8,8)" font-size="13px" font-family="'Noto Sans'" transform="matrix(1,0,0,1,20,20) translate(3,571)" stroke="rgb(8,8,8)">
      <image x="2" y="3" clip-path="url(#clipPath44)" width="16" xlink:href="data:image/png;base64,iVBORw0KGgoAAAANSUhEUgAAABAAAAAQCAYAAAAf8/9hAAABTElEQVR4XmNgoDbY&#10;P/U/z65ZP/x2zvpZs3P2j0kgvGv2z1qQGEgOXT0K2DHzqxFQw0QgnokDTwSpQdcH&#10;BiCJXXN+zMCiCQWD1GAYsnHua14CNqPjiSA9cAPAfkZT5GTp8yAzovlwuHf2+SC3&#10;5MvT6o+vQJYH6YEbAA0wdAMeTqzavxrE7i7dti7ELfUSihqgHoQBWJwPMmDbjM+z&#10;QOztMz/Pdrb0u4+mZiKSAb9A0YVhwNqJz+eB2Kv6H833to+4idsAHF7IjGw5PLv5&#10;zLKU0Pqj2dHtB1HUIHsBRyA+7CvbsTYzsu1QTfrc7SBvIMujBOK2SW/5gN7oRzdg&#10;+8zvKIYiYdRoBIG9C34o75j1owPZACwaMRNS0hbnViD+DKJ3zPmhgu4SdJsxUmHS&#10;VudPQPwfRIP4YO/M+eELCqRds39M2UkoMyG7AF2OGAAACgTh+GXbU1YAAAAASUVO&#10;RK5CYII=" height="16" preserveAspectRatio="none"/>
      <text x="21" y="16" clip-path="url(#clipPath44)" text-rendering="optimizeSpeed" shape-rendering="optimizeSpeed" stroke="none" xml:space="preserve">user</text>
    </g>
    <g font-size="13px" transform="matrix(1,0,0,1,20,20) translate(391,595)" fill="rgb(8,8,8)" text-rendering="optimizeSpeed" font-family="'Noto Sans'" shape-rendering="optimizeSpeed" stroke="rgb(8,8,8)">
      <text x="3" xml:space="preserve" y="16" clip-path="url(#clipPath8)" stroke="none">int</text>
    </g>
    <g fill="rgb(8,8,8)" font-size="13px" font-family="'Noto Sans'" transform="matrix(1,0,0,1,20,20) translate(3,595)" stroke="rgb(8,8,8)">
      <image x="2" y="3" clip-path="url(#clipPath46)" width="16" xlink:href="data:image/png;base64,iVBORw0KGgoAAAANSUhEUgAAABAAAAAQCAYAAAAf8/9hAAABTElEQVR4XmNgoDbY&#10;P/U/z65ZP/x2zvpZs3P2j0kgvGv2z1qQGEgOXT0K2DHzqxFQw0QgnokDTwSpQdcH&#10;BiCJXXN+zMCiCQWD1GAYsnHua14CNqPjiSA9cAPAfkZT5GTp8yAzovlwuHf2+SC3&#10;5MvT6o+vQJYH6YEbAA0wdAMeTqzavxrE7i7dti7ELfUSihqgHoQBWJwPMmDbjM+z&#10;QOztMz/Pdrb0u4+mZiKSAb9A0YVhwNqJz+eB2Kv6H833to+4idsAHF7IjGw5PLv5&#10;zLKU0Pqj2dHtB1HUIHsBRyA+7CvbsTYzsu1QTfrc7SBvIMujBOK2SW/5gN7oRzdg&#10;+8zvKIYiYdRoBIG9C34o75j1owPZACwaMRNS0hbnViD+DKJ3zPmhgu4SdJsxUmHS&#10;VudPQPwfRIP4YO/M+eELCqRds39M2UkoMyG7AF2OGAAACgTh+GXbU1YAAAAASUVO&#10;RK5CYII=" height="16" preserveAspectRatio="none"/>
      <text x="21" y="16" clip-path="url(#clipPath46)" text-rendering="optimizeSpeed" shape-rendering="optimizeSpeed" stroke="none" xml:space="preserve">size</text>
    </g>
    <g fill="rgb(215,213,172)" font-family="'JetBrains Mono'" transform="matrix(1,0,0,1,20,20) translate(1,251)" stroke="rgb(215,213,172)">
      <rect x="0" width="414" height="27" y="0" clip-path="url(#clipPath47)" stroke="none"/>
      <rect x="0" y="26" clip-path="url(#clipPath47)" fill="rgb(90,90,90)" width="414" height="1" stroke="none"/>
    </g>
    <g fill="rgb(8,8,8)" font-family="'JetBrains Mono'" transform="matrix(1,0,0,1,20,20) translate(1,251)" stroke="rgb(8,8,8)">
      <image x="2" y="5" clip-path="url(#clipPath48)" width="16" xlink:href="data:image/png;base64,iVBORw0KGgoAAAANSUhEUgAAABAAAAAQCAYAAAAf8/9hAAABBUlEQVR4XmNgoDZw&#10;2P+Kx277PT+HrQ9q7Lc9mATCIDZYDCiHrh4F2G5+YGS/9f5E+233Z2LFQDmQGnR9&#10;YACScNh+fwaGJjQMUoNhiPXGG7x4bUbHQLUgPXADQP5DVmC7+fYso9zmvVruQTe1&#10;HDwe6IUkn7OevW8JshqQHrgBkABDSBrmNO3Xi8w6bbP0xEK7dZfnmrUu3GC74vx8&#10;ZDUgPXAD0J2v5R5402bxiYXIYhgYqIeAAceINwDTCw379SLSz4AMsV15YZ5Z7fSt&#10;lhM3rkRWg+IF9EC033x7NsgQbbfAW5oOXvf0IjNO2yw6ughZDUogUhyNIEBRQoIB&#10;ipIyDFCUmcgBAO2xiXpDgcL0AAAAAElFTkSuQmCC" height="16" preserveAspectRatio="none"/>
      <image x="18" y="5" clip-path="url(#clipPath48)" width="16" xlink:href="data:image/png;base64,iVBORw0KGgoAAAANSUhEUgAAABAAAAAQCAYAAAAf8/9hAAAAVElEQVR4XmNgGAUo&#10;IHmrs0fyVqelSVudlqVscQlClycIQBozNjtJp2x0FgcatBZdniBI3Oq8CcZO2uq8&#10;GVmOKJC8DWIASDM2jK4eJ0DXOBINGGEAAK2BUelpYy0MAAAAAElFTkSuQmCC" height="16" preserveAspectRatio="none"/>
      <text x="40" y="17" clip-path="url(#clipPath48)" text-rendering="optimizeSpeed" shape-rendering="optimizeSpeed" stroke="none" xml:space="preserve">BasicConnectionPool</text>
    </g>
    <g fill="silver" transform="matrix(1,0,0,1,20,20) translate(63.5,0)" stroke="silver">
      <path d="M0 0 L289 0 L289 200 L0 200 L0 0 ZM1 1 L288 1 L288 199 L1 199 L1 1 Z" fill-rule="evenodd" clip-path="url(#clipPath49)" stroke="none"/>
    </g>
    <g fill="rgb(252,250,209)" font-family="'JetBrains Mono'" transform="matrix(1,0,0,1,20,20) translate(64.5,28)" stroke="rgb(252,250,209)">
      <rect x="0" width="287" height="171" y="0" clip-path="url(#clipPath51)" stroke="none"/>
    </g>
    <g font-size="13px" transform="matrix(1,0,0,1,20,20) translate(294.5,30)" fill="rgb(8,8,8)" text-rendering="optimizeSpeed" font-family="'Noto Sans'" shape-rendering="optimizeSpeed" stroke="rgb(8,8,8)">
      <text x="3" xml:space="preserve" y="16" clip-path="url(#clipPath30)" stroke="none">boolean</text>
    </g>
    <g fill="rgb(8,8,8)" font-size="13px" font-family="'Noto Sans'" transform="matrix(1,0,0,1,20,20) translate(66.5,30)" stroke="rgb(8,8,8)">
      <image x="2" y="3" clip-path="url(#clipPath31)" width="16" xlink:href="data:image/png;base64,iVBORw0KGgoAAAANSUhEUgAAABAAAAAQCAYAAAAf8/9hAAAA5ElEQVR4XmNgoDb4&#10;393N/aNjju/P7nnVP7rmTwBhMBsoBpJDV48BfnTO7wdqmo4VA+XQ1cPB7FWbnEA0&#10;hiY0jKwWDuavXy8wc8WGg8QaAFIL0gM3YNbyjRmzVmw4Q6wBILUgPUgGrF+GbIC/&#10;qfX9CGuH68EW1nca/cOORFjb3wTxN6QVr0cYsH4ZkgEbDqEbcLywYfnZsrYlIPal&#10;io7Fp4qalkYBDUEYsOEQTgOCLa3vwpwMMgDGDjK1vofDAFQv4DLAH8UAFC+gBiJI&#10;IWEDkAKR4mgEAYoSEjIgOynDAMWZiVQAAM2Jcpp+OFPBAAAAAElFTkSuQmCC" height="16" preserveAspectRatio="none"/>
      <image x="18" y="3" clip-path="url(#clipPath31)" width="16" xlink:href="data:image/png;base64,iVBORw0KGgoAAAANSUhEUgAAABAAAAAQCAYAAAAf8/9hAAAAVElEQVR4XmNgGAUo&#10;IHmrs0fyVqelSVudlqVscQlClycIQBozNjtJp2x0FgcatBZdniBI3Oq8CcZO2uq8&#10;GVmOKJC8DWIASDM2jK4eJ0DXOBINGGEAAK2BUelpYy0MAAAAAElFTkSuQmCC" height="16" preserveAspectRatio="none"/>
      <text x="37" y="16" clip-path="url(#clipPath31)" text-rendering="optimizeSpeed" shape-rendering="optimizeSpeed" stroke="none" xml:space="preserve">releaseConnection(Connection)</text>
    </g>
    <g font-size="13px" transform="matrix(1,0,0,1,20,20) translate(317.5,54)" fill="rgb(8,8,8)" text-rendering="optimizeSpeed" font-family="'Noto Sans'" shape-rendering="optimizeSpeed" stroke="rgb(8,8,8)">
      <text x="3" xml:space="preserve" y="16" clip-path="url(#clipPath33)" stroke="none">void</text>
    </g>
    <g fill="rgb(8,8,8)" font-size="13px" font-family="'Noto Sans'" transform="matrix(1,0,0,1,20,20) translate(66.5,54)" stroke="rgb(8,8,8)">
      <image x="2" y="3" clip-path="url(#clipPath34)" width="16" xlink:href="data:image/png;base64,iVBORw0KGgoAAAANSUhEUgAAABAAAAAQCAYAAAAf8/9hAAAA5ElEQVR4XmNgoDb4&#10;393N/aNjju/P7nnVP7rmTwBhMBsoBpJDV48BfnTO7wdqmo4VA+XQ1cPB7FWbnEA0&#10;hiY0jKwWDuavXy8wc8WGg8QaAFIL0gM3YNbyjRmzVmw4Q6wBILUgPUgGrF+GbIC/&#10;qfX9CGuH68EW1nca/cOORFjb3wTxN6QVr0cYsH4ZkgEbDqEbcLywYfnZsrYlIPal&#10;io7Fp4qalkYBDUEYsOEQTgOCLa3vwpwMMgDGDjK1vofDAFQv4DLAH8UAFC+gBiJI&#10;IWEDkAKR4mgEAYoSEjIgOynDAMWZiVQAAM2Jcpp+OFPBAAAAAElFTkSuQmCC" height="16" preserveAspectRatio="none"/>
      <image x="18" y="3" clip-path="url(#clipPath34)" width="16" xlink:href="data:image/png;base64,iVBORw0KGgoAAAANSUhEUgAAABAAAAAQCAYAAAAf8/9hAAAAVElEQVR4XmNgGAUo&#10;IHmrs0fyVqelSVudlqVscQlClycIQBozNjtJp2x0FgcatBZdniBI3Oq8CcZO2uq8&#10;GVmOKJC8DWIASDM2jK4eJ0DXOBINGGEAAK2BUelpYy0MAAAAAElFTkSuQmCC" height="16" preserveAspectRatio="none"/>
      <text x="37" y="16" clip-path="url(#clipPath34)" text-rendering="optimizeSpeed" shape-rendering="optimizeSpeed" stroke="none" xml:space="preserve">shutdown()</text>
    </g>
    <g fill="gray" font-size="13px" font-family="'Noto Sans'" transform="matrix(1,0,0,1,20,20) translate(64.5,28)" stroke="gray">
      <rect x="0" width="287" height="1" y="49" clip-path="url(#clipPath55)" stroke="none"/>
    </g>
    <g fill="gray" font-size="13px" font-family="'Noto Sans'" transform="matrix(1,0,0,1,20,20) translate(64.5,77)" stroke="gray">
      <rect x="0" width="287" height="1" y="0" clip-path="url(#clipPath56)" stroke="none"/>
    </g>
    <g font-size="13px" transform="matrix(1,0,0,1,20,20) translate(274.5,79)" fill="rgb(8,8,8)" text-rendering="optimizeSpeed" font-family="'Noto Sans'" shape-rendering="optimizeSpeed" stroke="rgb(8,8,8)">
      <text x="3" xml:space="preserve" y="16" clip-path="url(#clipPath27)" stroke="none">Connection</text>
    </g>
    <g fill="rgb(8,8,8)" font-size="13px" font-family="'Noto Sans'" transform="matrix(1,0,0,1,20,20) translate(66.5,79)" stroke="rgb(8,8,8)">
      <image x="2" y="3" clip-path="url(#clipPath37)" width="16" xlink:href="data:image/png;base64,iVBORw0KGgoAAAANSUhEUgAAABAAAAAQCAYAAAAf8/9hAAABTElEQVR4XmNgoDbY&#10;P/U/z65ZP/x2zvpZs3P2j0kgvGv2z1qQGEgOXT0K2DHzqxFQw0QgnokDTwSpQdcH&#10;BiCJXXN+zMCiCQWD1GAYsnHua14CNqPjiSA9cAPAfkZT5GTp8yAzovlwuHf2+SC3&#10;5MvT6o+vQJYH6YEbAA0wdAMeTqzavxrE7i7dti7ELfUSihqgHoQBWJwPMmDbjM+z&#10;QOztMz/Pdrb0u4+mZiKSAb9A0YVhwNqJz+eB2Kv6H833to+4idsAHF7IjGw5PLv5&#10;zLKU0Pqj2dHtB1HUIHsBRyA+7CvbsTYzsu1QTfrc7SBvIMujBOK2SW/5gN7oRzdg&#10;+8zvKIYiYdRoBIG9C34o75j1owPZACwaMRNS0hbnViD+DKJ3zPmhgu4SdJsxUmHS&#10;VudPQPwfRIP4YO/M+eELCqRds39M2UkoMyG7AF2OGAAACgTh+GXbU1YAAAAASUVO&#10;RK5CYII=" height="16" preserveAspectRatio="none"/>
      <text x="21" y="16" clip-path="url(#clipPath37)" text-rendering="optimizeSpeed" shape-rendering="optimizeSpeed" stroke="none" xml:space="preserve">connection</text>
    </g>
    <g font-size="13px" transform="matrix(1,0,0,1,20,20) translate(307.5,103)" fill="rgb(8,8,8)" text-rendering="optimizeSpeed" font-family="'Noto Sans'" shape-rendering="optimizeSpeed" stroke="rgb(8,8,8)">
      <text x="3" xml:space="preserve" y="16" clip-path="url(#clipPath39)" stroke="none">String</text>
    </g>
    <g fill="rgb(8,8,8)" font-size="13px" font-family="'Noto Sans'" transform="matrix(1,0,0,1,20,20) translate(66.5,103)" stroke="rgb(8,8,8)">
      <image x="2" y="3" clip-path="url(#clipPath40)" width="16" xlink:href="data:image/png;base64,iVBORw0KGgoAAAANSUhEUgAAABAAAAAQCAYAAAAf8/9hAAABTElEQVR4XmNgoDbY&#10;P/U/z65ZP/x2zvpZs3P2j0kgvGv2z1qQGEgOXT0K2DHzqxFQw0QgnokDTwSpQdcH&#10;BiCJXXN+zMCiCQWD1GAYsnHua14CNqPjiSA9cAPAfkZT5GTp8yAzovlwuHf2+SC3&#10;5MvT6o+vQJYH6YEbAA0wdAMeTqzavxrE7i7dti7ELfUSihqgHoQBWJwPMmDbjM+z&#10;QOztMz/Pdrb0u4+mZiKSAb9A0YVhwNqJz+eB2Kv6H833to+4idsAHF7IjGw5PLv5&#10;zLKU0Pqj2dHtB1HUIHsBRyA+7CvbsTYzsu1QTfrc7SBvIMujBOK2SW/5gN7oRzdg&#10;+8zvKIYiYdRoBIG9C34o75j1owPZACwaMRNS0hbnViD+DKJ3zPmhgu4SdJsxUmHS&#10;VudPQPwfRIP4YO/M+eELCqRds39M2UkoMyG7AF2OGAAACgTh+GXbU1YAAAAASUVO&#10;RK5CYII=" height="16" preserveAspectRatio="none"/>
      <text x="21" y="16" clip-path="url(#clipPath40)" text-rendering="optimizeSpeed" shape-rendering="optimizeSpeed" stroke="none" xml:space="preserve">password</text>
    </g>
    <g font-size="13px" transform="matrix(1,0,0,1,20,20) translate(307.5,127)" fill="rgb(8,8,8)" text-rendering="optimizeSpeed" font-family="'Noto Sans'" shape-rendering="optimizeSpeed" stroke="rgb(8,8,8)">
      <text x="3" xml:space="preserve" y="16" clip-path="url(#clipPath39)" stroke="none">String</text>
    </g>
    <g fill="rgb(8,8,8)" font-size="13px" font-family="'Noto Sans'" transform="matrix(1,0,0,1,20,20) translate(66.5,127)" stroke="rgb(8,8,8)">
      <image x="2" y="3" clip-path="url(#clipPath42)" width="16" xlink:href="data:image/png;base64,iVBORw0KGgoAAAANSUhEUgAAABAAAAAQCAYAAAAf8/9hAAABTElEQVR4XmNgoDbY&#10;P/U/z65ZP/x2zvpZs3P2j0kgvGv2z1qQGEgOXT0K2DHzqxFQw0QgnokDTwSpQdcH&#10;BiCJXXN+zMCiCQWD1GAYsnHua14CNqPjiSA9cAPAfkZT5GTp8yAzovlwuHf2+SC3&#10;5MvT6o+vQJYH6YEbAA0wdAMeTqzavxrE7i7dti7ELfUSihqgHoQBWJwPMmDbjM+z&#10;QOztMz/Pdrb0u4+mZiKSAb9A0YVhwNqJz+eB2Kv6H833to+4idsAHF7IjGw5PLv5&#10;zLKU0Pqj2dHtB1HUIHsBRyA+7CvbsTYzsu1QTfrc7SBvIMujBOK2SW/5gN7oRzdg&#10;+8zvKIYiYdRoBIG9C34o75j1owPZACwaMRNS0hbnViD+DKJ3zPmhgu4SdJsxUmHS&#10;VudPQPwfRIP4YO/M+eELCqRds39M2UkoMyG7AF2OGAAACgTh+GXbU1YAAAAASUVO&#10;RK5CYII=" height="16" preserveAspectRatio="none"/>
      <text x="21" y="16" clip-path="url(#clipPath42)" text-rendering="optimizeSpeed" shape-rendering="optimizeSpeed" stroke="none" xml:space="preserve">url</text>
    </g>
    <g font-size="13px" transform="matrix(1,0,0,1,20,20) translate(307.5,151)" fill="rgb(8,8,8)" text-rendering="optimizeSpeed" font-family="'Noto Sans'" shape-rendering="optimizeSpeed" stroke="rgb(8,8,8)">
      <text x="3" xml:space="preserve" y="16" clip-path="url(#clipPath39)" stroke="none">String</text>
    </g>
    <g fill="rgb(8,8,8)" font-size="13px" font-family="'Noto Sans'" transform="matrix(1,0,0,1,20,20) translate(66.5,151)" stroke="rgb(8,8,8)">
      <image x="2" y="3" clip-path="url(#clipPath44)" width="16" xlink:href="data:image/png;base64,iVBORw0KGgoAAAANSUhEUgAAABAAAAAQCAYAAAAf8/9hAAABTElEQVR4XmNgoDbY&#10;P/U/z65ZP/x2zvpZs3P2j0kgvGv2z1qQGEgOXT0K2DHzqxFQw0QgnokDTwSpQdcH&#10;BiCJXXN+zMCiCQWD1GAYsnHua14CNqPjiSA9cAPAfkZT5GTp8yAzovlwuHf2+SC3&#10;5MvT6o+vQJYH6YEbAA0wdAMeTqzavxrE7i7dti7ELfUSihqgHoQBWJwPMmDbjM+z&#10;QOztMz/Pdrb0u4+mZiKSAb9A0YVhwNqJz+eB2Kv6H833to+4idsAHF7IjGw5PLv5&#10;zLKU0Pqj2dHtB1HUIHsBRyA+7CvbsTYzsu1QTfrc7SBvIMujBOK2SW/5gN7oRzdg&#10;+8zvKIYiYdRoBIG9C34o75j1owPZACwaMRNS0hbnViD+DKJ3zPmhgu4SdJsxUmHS&#10;VudPQPwfRIP4YO/M+eELCqRds39M2UkoMyG7AF2OGAAACgTh+GXbU1YAAAAASUVO&#10;RK5CYII=" height="16" preserveAspectRatio="none"/>
      <text x="21" y="16" clip-path="url(#clipPath44)" text-rendering="optimizeSpeed" shape-rendering="optimizeSpeed" stroke="none" xml:space="preserve">user</text>
    </g>
    <g font-size="13px" transform="matrix(1,0,0,1,20,20) translate(327.5,175)" fill="rgb(8,8,8)" text-rendering="optimizeSpeed" font-family="'Noto Sans'" shape-rendering="optimizeSpeed" stroke="rgb(8,8,8)">
      <text x="3" xml:space="preserve" y="16" clip-path="url(#clipPath8)" stroke="none">int</text>
    </g>
    <g fill="rgb(8,8,8)" font-size="13px" font-family="'Noto Sans'" transform="matrix(1,0,0,1,20,20) translate(66.5,175)" stroke="rgb(8,8,8)">
      <image x="2" y="3" clip-path="url(#clipPath46)" width="16" xlink:href="data:image/png;base64,iVBORw0KGgoAAAANSUhEUgAAABAAAAAQCAYAAAAf8/9hAAABTElEQVR4XmNgoDbY&#10;P/U/z65ZP/x2zvpZs3P2j0kgvGv2z1qQGEgOXT0K2DHzqxFQw0QgnokDTwSpQdcH&#10;BiCJXXN+zMCiCQWD1GAYsnHua14CNqPjiSA9cAPAfkZT5GTp8yAzovlwuHf2+SC3&#10;5MvT6o+vQJYH6YEbAA0wdAMeTqzavxrE7i7dti7ELfUSihqgHoQBWJwPMmDbjM+z&#10;QOztMz/Pdrb0u4+mZiKSAb9A0YVhwNqJz+eB2Kv6H833to+4idsAHF7IjGw5PLv5&#10;zLKU0Pqj2dHtB1HUIHsBRyA+7CvbsTYzsu1QTfrc7SBvIMujBOK2SW/5gN7oRzdg&#10;+8zvKIYiYdRoBIG9C34o75j1owPZACwaMRNS0hbnViD+DKJ3zPmhgu4SdJsxUmHS&#10;VudPQPwfRIP4YO/M+eELCqRds39M2UkoMyG7AF2OGAAACgTh+GXbU1YAAAAASUVO&#10;RK5CYII=" height="16" preserveAspectRatio="none"/>
      <text x="21" y="16" clip-path="url(#clipPath46)" text-rendering="optimizeSpeed" shape-rendering="optimizeSpeed" stroke="none" xml:space="preserve">size</text>
    </g>
    <g fill="rgb(215,213,172)" font-family="'JetBrains Mono'" transform="matrix(1,0,0,1,20,20) translate(64.5,1)" stroke="rgb(215,213,172)">
      <rect x="0" width="287" height="27" y="0" clip-path="url(#clipPath62)" stroke="none"/>
      <rect x="0" y="26" clip-path="url(#clipPath62)" fill="rgb(90,90,90)" width="287" height="1" stroke="none"/>
    </g>
    <g fill="rgb(8,8,8)" font-family="'JetBrains Mono'" transform="matrix(1,0,0,1,20,20) translate(64.5,1)" stroke="rgb(8,8,8)">
      <image x="2" y="5" clip-path="url(#clipPath63)" width="16" xlink:href="data:image/png;base64,iVBORw0KGgoAAAANSUhEUgAAABAAAAAQCAYAAAAf8/9hAAAAnElEQVR4XmNgoDbI&#10;2u/Ak7Td0S95q1NN0janSSAMZgPFQHLo6lFA4mYno6StzhOTtjnPxIqBciA16PrA&#10;ACSRvN15BoYmNAxSg2FI0kZrXrw2o2OQWqAehAFA/6ErMrBXf4CM0eVBeuAGQAIM&#10;0yaHFP0jIIwuDsIgPQgX4HA+PgNAeqhnAOVeoDQQKY5GEKAoIcEARUkZBijKTOQA&#10;AArDPZARqQL9AAAAAElFTkSuQmCC" height="16" preserveAspectRatio="none"/>
      <image x="18" y="5" clip-path="url(#clipPath63)" width="16" xlink:href="data:image/png;base64,iVBORw0KGgoAAAANSUhEUgAAABAAAAAQCAYAAAAf8/9hAAAAVElEQVR4XmNgGAUo&#10;IHmrs0fyVqelSVudlqVscQlClycIQBozNjtJp2x0FgcatBZdniBI3Oq8CcZO2uq8&#10;GVmOKJC8DWIASDM2jK4eJ0DXOBINGGEAAK2BUelpYy0MAAAAAElFTkSuQmCC" height="16" preserveAspectRatio="none"/>
      <text x="40" y="17" clip-path="url(#clipPath63)" text-rendering="optimizeSpeed" shape-rendering="optimizeSpeed" stroke="none" xml:space="preserve">ConnectionPool</text>
    </g>
    <g fill="rgb(0,130,0)" stroke-miterlimit="1.45" stroke-dasharray="6,2" transform="matrix(1,0,0,1,20,20)" stroke-linecap="butt" stroke="rgb(0,130,0)">
      <path fill="none" d="M208 249.9512 L208 211.0488" clip-path="url(#clipPath2)"/>
    </g>
    <g fill="rgb(0,130,0)" stroke-miterlimit="1.45" stroke-dasharray="6,2" transform="matrix(1,0,0,1,20,20)" stroke-linecap="butt" stroke="rgb(0,130,0)">
      <path d="M208 200.0488 L202 212.0488 L214 212.0488 Z" stroke="none" clip-path="url(#clipPath2)"/>
    </g>
  </g>
</svg>
